Estudio del impacto de la pandemia en un establecimiento de comida rápida: Análisis y estimación de parámetros para el modelo modificado de Cramer-Lundberg – 6 Estudio de caso: Análisis de ventas de u
…
Datos

# A tibble: 2,416 × 75
    ...1  ...2  ...3  ...4  ...5  ...6 `240519` `82253.5` `247172.9` ...10 `973`
   <dbl> <dbl> <dbl> <dbl> <dbl> <dbl>    <dbl>     <dbl>      <dbl> <dbl> <dbl>
 1    NA    NA    NA    NA    NA    NA      NA        NA         NA     NA   NA 
 2    NA    NA    NA    NA    NA    NA    9382.     9441.        NA     NA 9382.
 3  2018     7    30     4 43306    NA  188038.       NA     188038.    NA  682 
 4  2018     7    30     5 43307    NA  220827        NA     220827     NA  694 
 5  2018     7    30     6 43308    NA  240519        NA     240519     NA  762 
 6  2018     7    30     7 43309    NA  229542        NA     229542     NA  704 
 7  2018     7    30     1 43310    NA  239776.       NA     239776.    NA  706 
 8  2018     7    31     2 43311    NA  172946        NA     172946     NA  602 
 9  2018     7    31     3 43312    NA  210671        NA     210671     NA  709 
10  2018     8    31     4 43313    NA  195662        NA     195662     NA  649 
# ℹ 2,406 more rows
# ℹ 64 more variables: `384` <dbl>, `1136` <dbl>, ...14 <dbl>,
#   `371.753114754098` <dbl>, `2428.16666666666` <dbl>, ...17 <dbl>,
#   ...18 <dbl>, `2099` <dbl>, `222` <dbl>, `2162` <dbl>, ...22 <dbl>,
#   `1384...23` <dbl>, `559` <dbl>, `1384...25` <dbl>, ...26 <dbl>,
#   `2402` <dbl>, `658` <dbl>, `2525` <dbl>, ...30 <dbl>, `1556...31` <dbl>,
#   `462` <dbl>, `1556...33` <dbl>, ...34 <dbl>, `61` <dbl>, `57` <dbl>, …
…
